[gd_scene load_steps=3 format=2]

[ext_resource path="res://Chat.gd" type="Script" id=1]
[ext_resource path="res://ChatBox/ChatBox.tscn" type="PackedScene" id=2]

[node name="Chat" type="Node"]
script = ExtResource( 1 )

[node name="CommandLine" parent="." instance=ExtResource( 2 )]

[connection signal="on_send" from="CommandLine" to="." method="_on_CommandLine_on_send"]
